<?xml version="1.0" standalone="no"?>
<!DOCTYPE svg PUBLIC "-//W3C//DTD SVG 1.1//EN" "http://www.w3.org/Graphics/SVG/1.1/DTD/svg11.dtd" >
<svg xmlns="http://www.w3.org/2000/svg">
<metadata>Generated by IcoMoon</metadata>
<defs>
<font id="icomoon" horiz-adv-x="1024">
<font-face units-per-em="1024" ascent="960" descent="-64" />
<missing-glyph horiz-adv-x="1024" />
<glyph unicode="&#x20;" horiz-adv-x="512" d="" />
<glyph unicode="&#xe900;" glyph-name="google-plus" d="M539.282 375.391l-48.017 37.308c-14.618 12.118-34.639 28.135-34.639 57.434 0 29.427 20.010 48.134 37.361 65.464 55.92 44.034 111.829 90.897 111.829 189.644 0 101.543-63.885 154.963-94.52 180.311h82.571l86.66 54.447h-262.544c-72.042 0-175.873-17.033-251.887-79.796-57.286-49.426-85.23-117.57-85.23-178.934 0-104.138 79.955-209.717 221.179-209.717 13.336 0 27.923 1.314 42.604 2.669-6.599-16.048-13.262-29.416-13.262-52.085 0-41.365 21.249-66.724 39.977-90.749-59.987-4.131-171.996-10.784-254.578-61.534-78.641-46.767-102.581-114.826-102.581-162.886 0-98.874 93.217-190.968 286.484-190.968 229.187 0 350.507 126.807 350.507 252.353 0.021 92.232-53.261 137.622-111.913 187.038zM364.722 528.966c-114.657 0-166.594 148.215-166.594 237.64 0 34.829 6.599 70.781 29.268 98.863 21.387 26.736 58.61 44.087 93.365 44.087 110.526 0 167.854-149.55 167.854-245.722 0-24.056-2.659-66.693-33.304-97.528-21.429-21.408-57.297-37.34-90.59-37.34zM366.036-8.049c-142.58 0-234.515 68.197-234.515 163.045 0 94.795 85.251 126.881 114.572 137.485 55.941 18.823 127.919 21.44 139.932 21.44 13.326 0 19.989 0 30.603-1.335 101.352-72.137 145.344-108.079 145.344-176.371 0.011-82.677-67.974-144.264-195.936-144.264zM875.806 531v133.523h-65.93v-133.523h-133.322v-66.671h133.322v-134.36h65.93v134.36h133.989v66.671z" />
<glyph unicode="&#xe901;" glyph-name="pinterest" d="M525.909 960c-280.704-0.043-429.909-179.883-429.909-375.979 0-90.923 50.816-204.373 132.181-240.341 23.211-10.453 20.139 2.304 40.107 78.677 1.579 6.357 0.768 11.861-4.352 17.792-116.309 134.528-22.699 411.093 245.376 411.093 387.968 0 315.477-536.832 67.499-536.832-63.915 0-111.531 50.176-96.469 112.256 18.261 73.941 54.016 153.429 54.016 206.72 0 134.315-200.107 114.389-200.107-63.573 0-54.997 19.456-92.117 19.456-92.117s-64.384-260.096-76.331-308.693c-20.224-82.261 2.731-215.424 4.736-226.901 1.237-6.315 8.32-8.32 12.288-3.115 6.357 8.32 84.181 119.339 105.984 199.595 7.936 29.227 40.491 147.84 40.491 147.84 21.461-38.741 83.328-71.168 149.248-71.168 196.096 0 337.835 172.373 337.835 386.261-0.683 205.056-176.171 358.485-402.048 358.485z" />
<glyph unicode="&#xe902;" glyph-name="eye" d="M512.001 587.635c-77.034 0-139.636-62.603-139.636-139.636s62.603-139.636 139.636-139.636 139.636 62.603 139.636 139.636-62.605 139.636-139.636 139.636zM512.001 797.090c-232.728 0-431.477-144.755-512.001-349.091 80.524-204.334 279.273-349.091 512.001-349.091 232.959 0 431.477 144.757 512.001 349.091-80.524 204.336-279.042 349.091-512.001 349.091zM512.001 215.273c-128.466 0-232.728 104.263-232.728 232.728s104.263 232.726 232.728 232.726 232.728-104.263 232.728-232.728-104.263-232.726-232.728-232.726z" />
<glyph unicode="&#xe903;" glyph-name="friend" d="M310.654 845.716c-103.062 0-186.908-88.9-186.908-198.172s83.846-198.172 186.908-198.172 186.91 88.9 186.91 198.172c0 109.272-83.846 198.172-186.91 198.172zM735.596 817.358c-0.422 0-0.85-0.002-1.272-0.004-43.252-0.358-83.652-18.62-113.756-51.426-29.576-32.226-45.658-74.74-45.288-119.708 0.372-44.968 17.154-87.21 47.256-118.946 30.34-31.982 70.53-49.546 113.302-49.546 0.43 0 0.86 0.002 1.292 0.004 43.252 0.358 83.652 18.622 113.756 51.426 29.576 32.226 45.658 74.74 45.288 119.71-0.77 93.188-72.68 168.49-160.578 168.49zM743.48 445.284h-15.52c-72.28 0-138.24-27.48-188.040-72.52 12.46-9.56 24.32-19.98 35.56-31.22 33.16-33.16 59.2-71.8 77.4-114.84 16.4-38.76 25.76-79.6 27.94-121.66h343.18v59.74c0 154.66-125.84 280.5-280.52 280.5zM620.7 105.044c-5.66 91.18-51.88 171.38-120.86 222.78-50.18 37.4-112.42 59.54-179.84 59.54h-18.68c-166.42-0.002-301.32-134.9-301.32-301.32v-35.76h621.3v35.76c0 6.38-0.2 12.72-0.6 19z" />
<glyph unicode="&#xe904;" glyph-name="speech-bubble" d="M512 897.312c-282.304 0-512-186.624-512-416 0-117.184 59.648-227.072 164.608-305.664-31.488-46.4-78.208-95.872-140.288-111.296-14.848-3.712-25.024-17.344-24.256-32.64s12.16-27.904 27.328-30.080c2.304-0.32 21.312-2.944 52.544-2.944 64.96 0 182.656 11.392 311.936 78.336 38.336-7.744 78.656-11.712 120.128-11.712 282.304 0 512 186.624 512 416s-229.696 416-512 416zM256 385.312c-35.328 0-64 28.672-64 64s28.672 64 64 64 64-28.672 64-64-28.672-64-64-64zM512 385.312c-35.328 0-64 28.672-64 64s28.672 64 64 64 64-28.672 64-64-28.672-64-64-64zM768 385.312c-35.328 0-64 28.672-64 64s28.672 64 64 64 64-28.672 64-64-28.672-64-64-64z" />
<glyph unicode="&#xe905;" glyph-name="loupe" d="M1011.488 8.835l-291.197 291.197c56.405 69.673 90.367 158.206 90.367 254.632 0 223.486-181.844 405.33-405.33 405.33s-405.328-181.842-405.328-405.328 181.844-405.33 405.33-405.33c96.425 0 184.958 33.962 254.632 90.367l291.197-291.197c8.32-8.32 19.242-12.502 30.166-12.502s21.846 4.182 30.166 12.502c16.682 16.682 16.682 43.648-0.002 60.329zM405.33 234.669c-176.468 0-319.997 143.529-319.997 319.997s143.529 319.997 319.997 319.997 319.997-143.529 319.997-319.997-143.531-319.997-319.997-319.997z" />
<glyph unicode="&#xe906;" glyph-name="buy" d="M981.928 746.39h-800.643l-11.901 132.584c-1.946 21.682-20.118 38.295-41.886 38.295h-85.444c-23.226 0-42.054-18.828-42.054-42.054s18.828-42.054 42.054-42.054h46.996c25.683-286.131-40.694 453.412 48.368-538.869 3.432-38.838 24.417-80.982 60.568-109.619-65.178-83.235-5.625-205.942 100.397-205.942 87.997 0 150.063 87.765 119.886 170.887h230.167c-30.139-83.017 31.793-170.887 119.886-170.887 70.302 0 127.498 57.195 127.498 127.498s-57.195 127.498-127.498 127.498h-469.655c-31.945 0-59.783 19.273-71.798 47.353l672.078 39.499c18.348 1.077 33.871 13.95 38.331 31.781l85.45 341.779c6.625 26.502-13.437 52.253-40.8 52.253zM298.383 62.839c-23.923 0-43.388 19.465-43.388 43.39s19.465 43.39 43.388 43.39c23.925 0 43.39-19.465 43.39-43.39s-19.465-43.39-43.39-43.39zM768.32 62.839c-23.925 0-43.39 19.465-43.39 43.39s19.465 43.39 43.39 43.39 43.39-19.465 43.39-43.39-19.465-43.39-43.39-43.39zM863.174 402.727l-647.625-38.059-26.714 297.616h739.233z" />
<glyph unicode="&#xe90d;" glyph-name="image" d="M959.884 832c0.040-0.034 0.082-0.076 0.116-0.116v-767.77c-0.034-0.040-0.076-0.082-0.116-0.116h-895.77c-0.040 0.034-0.082 0.076-0.114 0.116v767.772c0.034 0.040 0.076 0.082 0.114 0.114h895.77zM960 896h-896c-35.2 0-64-28.8-64-64v-768c0-35.2 28.8-64 64-64h896c35.2 0 64 28.8 64 64v768c0 35.2-28.8 64-64 64v0zM832 672c0-53.020-42.98-96-96-96s-96 42.98-96 96 42.98 96 96 96 96-42.98 96-96zM896 128h-768v128l224 384 256-320h64l224 192z" />
<glyph unicode="&#xe9bd;" glyph-name="menu" d="M64 768h896v-192h-896zM64 512h896v-192h-896zM64 256h896v-192h-896z" />
<glyph unicode="&#xea90;" glyph-name="facebook" d="M608 768h160v192h-160c-123.514 0-224-100.486-224-224v-96h-128v-192h128v-512h192v512h160l32 192h-192v96c0 17.346 14.654 32 32 32z" />
<glyph unicode="&#xea92;" glyph-name="instagram" d="M512 867.8c136.8 0 153-0.6 206.8-3 50-2.2 77-10.6 95-17.6 23.8-9.2 41-20.4 58.8-38.2 18-18 29-35 38.4-58.8 7-18 15.4-45.2 17.6-95 2.4-54 3-70.2 3-206.8s-0.6-153-3-206.8c-2.2-50-10.6-77-17.6-95-9.2-23.8-20.4-41-38.2-58.8-18-18-35-29-58.8-38.4-18-7-45.2-15.4-95-17.6-54-2.4-70.2-3-206.8-3s-153 0.6-206.8 3c-50 2.2-77 10.6-95 17.6-23.8 9.2-41 20.4-58.8 38.2-18 18-29 35-38.4 58.8-7 18-15.4 45.2-17.6 95-2.4 54-3 70.2-3 206.8s0.6 153 3 206.8c2.2 50 10.6 77 17.6 95 9.2 23.8 20.4 41 38.2 58.8 18 18 35 29 58.8 38.4 18 7 45.2 15.4 95 17.6 53.8 2.4 70 3 206.8 3zM512 960c-139 0-156.4-0.6-211-3-54.4-2.4-91.8-11.2-124.2-23.8-33.8-13.2-62.4-30.6-90.8-59.2-28.6-28.4-46-57-59.2-90.6-12.6-32.6-21.4-69.8-23.8-124.2-2.4-54.8-3-72.2-3-211.2s0.6-156.4 3-211c2.4-54.4 11.2-91.8 23.8-124.2 13.2-33.8 30.6-62.4 59.2-90.8 28.4-28.4 57-46 90.6-59 32.6-12.6 69.8-21.4 124.2-23.8 54.6-2.4 72-3 211-3s156.4 0.6 211 3c54.4 2.4 91.8 11.2 124.2 23.8 33.6 13 62.2 30.6 90.6 59s46 57 59 90.6c12.6 32.6 21.4 69.8 23.8 124.2 2.4 54.6 3 72 3 211s-0.6 156.4-3 211c-2.4 54.4-11.2 91.8-23.8 124.2-12.6 34-30 62.6-58.6 91-28.4 28.4-57 46-90.6 59-32.6 12.6-69.8 21.4-124.2 23.8-54.8 2.6-72.2 3.2-211.2 3.2v0zM512 711c-145.2 0-263-117.8-263-263s117.8-263 263-263 263 117.8 263 263c0 145.2-117.8 263-263 263zM512 277.4c-94.2 0-170.6 76.4-170.6 170.6s76.4 170.6 170.6 170.6c94.2 0 170.6-76.4 170.6-170.6s-76.4-170.6-170.6-170.6zM846.8 721.4c0-33.91-27.49-61.4-61.4-61.4s-61.4 27.49-61.4 61.4c0 33.91 27.49 61.4 61.4 61.4s61.4-27.49 61.4-61.4z" />
<glyph unicode="&#xea96;" glyph-name="twitter" d="M1024 733.6c-37.6-16.8-78.2-28-120.6-33 43.4 26 76.6 67.2 92.4 116.2-40.6-24-85.6-41.6-133.4-51-38.4 40.8-93 66.2-153.4 66.2-116 0-210-94-210-210 0-16.4 1.8-32.4 5.4-47.8-174.6 8.8-329.4 92.4-433 219.6-18-31-28.4-67.2-28.4-105.6 0-72.8 37-137.2 93.4-174.8-34.4 1-66.8 10.6-95.2 26.2 0-0.8 0-1.8 0-2.6 0-101.8 72.4-186.8 168.6-206-17.6-4.8-36.2-7.4-55.4-7.4-13.6 0-26.6 1.4-39.6 3.8 26.8-83.4 104.4-144.2 196.2-146-72-56.4-162.4-90-261-90-17 0-33.6 1-50.2 3 93.2-59.8 203.6-94.4 322.2-94.4 386.4 0 597.8 320.2 597.8 597.8 0 9.2-0.2 18.2-0.6 27.2 41 29.4 76.6 66.4 104.8 108.6z" />
<glyph unicode="&#xea9d;" glyph-name="youtube" d="M1013.8 652.8c0 0-10 70.6-40.8 101.6-39 40.8-82.6 41-102.6 43.4-143.2 10.4-358.2 10.4-358.2 10.4h-0.4c0 0-215 0-358.2-10.4-20-2.4-63.6-2.6-102.6-43.4-30.8-31-40.6-101.6-40.6-101.6s-10.2-82.8-10.2-165.8v-77.6c0-82.8 10.2-165.8 10.2-165.8s10-70.6 40.6-101.6c39-40.8 90.2-39.4 113-43.8 82-7.8 348.2-10.2 348.2-10.2s215.2 0.4 358.4 10.6c20 2.4 63.6 2.6 102.6 43.4 30.8 31 40.8 101.6 40.8 101.6s10.2 82.8 10.2 165.8v77.6c-0.2 82.8-10.4 165.8-10.4 165.8zM406.2 315.2v287.8l276.6-144.4-276.6-143.4z" />
<glyph unicode="&#xeaa7;" glyph-name="dribbble" d="M512-64c-282.4 0-512 229.6-512 512s229.6 512 512 512c282.4 0 512-229.6 512-512s-229.6-512-512-512v0zM943.8 378c-15 4.8-135.4 40.6-272.4 18.6 57.2-157.2 80.4-285.2 85-311.8 98 66.4 168 171.4 187.4 293.2v0zM682.8 44.8c-6.6 38.4-31.8 172-93.2 331.6-1-0.4-2-0.6-2.8-1-246.8-86-335.4-257-343.2-273 74.2-57.8 167.4-92.4 268.4-92.4 60.6 0 118.4 12.4 170.8 34.8v0zM187 155c10 17 130 215.6 355.4 288.6 5.6 1.8 11.4 3.6 17.2 5.2-11 24.8-23 49.8-35.4 74.2-218.2-65.4-430.2-62.6-449.4-62.4-0.2-4.4-0.2-8.8-0.2-13.4 0-112.2 42.6-214.8 112.4-292.2v0zM84 537c19.6-0.2 199.8-1 404.4 53.2-72.4 128.8-150.6 237.2-162.2 253-122.4-57.8-214-170.6-242.2-306.2v0zM409.6 872.6c12-16.2 91.6-124.4 163.2-256 155.6 58.2 221.4 146.8 229.2 158-77.2 68.6-178.8 110.2-290 110.2-35.2-0.2-69.6-4.4-102.4-12.2v0zM850.6 723.8c-9.2-12.4-82.6-106.4-244.2-172.4 10.2-20.8 20-42 29-63.4 3.2-7.6 6.4-15 9.4-22.6 145.6 18.2 290.2-11 304.6-14-1 103.2-38 198-98.8 272.4v0z" />
<glyph unicode="&#xeab9;" glyph-name="tumblr" d="M576.032 512l-0.002-234.184c0-59.418-0.77-93.656 5.53-110.5 6.25-16.754 21.918-34.146 38.99-44.202 22.684-13.588 48.542-20.376 77.708-20.376 51.854 0 82.478 6.848 133.742 40.54v-153.944c-43.7-20.552-81.866-32.594-117.324-40.922-35.5-8.242-73.86-12.406-115.064-12.406-46.828 0-74.456 5.886-110.41 17.656-35.958 11.868-66.66 28.806-92.020 50.54-25.45 21.922-43.022 45.208-52.848 69.832-9.826 24.636-14.716 60.414-14.716 107.244v359.1h-137.426v145.006c40.208 13.042 85.164 31.788 113.78 56.152 28.754 24.45 51.766 53.706 69.106 87.944 17.392 34.146 29.348 77.712 35.872 130.516h165.084l-0.002-255.996h255.968v-192h-255.968z" />
</font></defs></svg>